(footprint "BM64_Daughter_Board" (version 20211014) (generator pcbnew)
  (layer "F.Cu")
  (tedit 0)
  (attr through_hole)
  (fp_text reference "REF**" (at 2.54 13.51 unlocked) (layer "F.SilkS")
    (effects (font (size 1 1) (thickness 0.15)))
    (tstamp e149e0b1-47fa-4b20-b36e-2d51ee1e85c3)
  )
  (fp_text value "BM64_Daughter_Board" (at 2.54 15.01 unlocked) (layer "F.Fab")
    (effects (font (size 1 1) (thickness 0.15)))
    (tstamp 81c041f3-483e-477d-9475-d108280de2a9)
  )
  (fp_text user "${REFERENCE}" (at 20.85 6.345 90) (layer "F.Fab")
    (effects (font (size 1 1) (thickness 0.15)))
    (tstamp a9ff0621-eacb-4187-ba89-29f236eec881)
  )
  (fp_text user "${REFERENCE}" (at -13.44 -8.89 90) (layer "F.Fab")
    (effects (font (size 1 1) (thickness 0.15)))
    (tstamp c6505e92-8e90-436d-b6f5-959c6248d156)
  )
  (fp_text user "${REFERENCE}" (at -17.25 11.425 90) (layer "F.Fab")
    (effects (font (size 1 1) (thickness 0.15)))
    (tstamp ce4b6c19-1441-4e43-8af4-a7f34dfbb538)
  )
  (fp_text user "${REFERENCE}" (at 2.54 16.51 unlocked) (layer "F.Fab")
    (effects (font (size 1 1) (thickness 0.15)))
    (tstamp e68c5170-03c3-4a20-abd0-ad610c43d035)
  )
  (fp_line (start 20.85 -6.415) (end 20.85 -3.815) (layer "F.SilkS") (width 0.12) (tstamp 03d57b22-a0ad-4d3d-9d1c-5573371e6c2f))
  (fp_line (start -12.11 -10.92) (end -12.11 -10.16) (layer "F.SilkS") (width 0.12) (tstamp 0f0d22b0-c2a7-436a-931c-fa4be6782d48))
  (fp_line (start 23.45 -3.815) (end 23.45 19.105) (layer "F.SilkS") (width 0.12) (tstamp 0fe3ebe2-61a9-477a-a657-d783c4c4d70e))
  (fp_line (start 22.12 -6.415) (end 23.45 -6.415) (layer "F.SilkS") (width 0.12) (tstamp 159c8092-f459-40eb-b409-c2cace814e6e))
  (fp_line (start -12.68 -9.525) (end -12.11 -9.525) (layer "F.SilkS") (width 0.12) (tstamp 25e5e3b2-c628-460f-8b34-28a2c7950e5f))
  (fp_line (start -14.65 3.745) (end -14.65 5.075) (layer "F.SilkS") (width 0.12) (tstamp 325f33ca-3e2f-400b-a27c-dce9977a2780))
  (fp_line (start -15.98 3.745) (end -14.65 3.745) (layer "F.SilkS") (width 0.12) (tstamp 52820a90-7869-43b3-b870-39c015371964))
  (fp_line (start 20.85 -3.815) (end 23.45 -3.815) (layer "F.SilkS") (width 0.12) (tstamp 56bbedad-6259-4443-b321-0ffa1f89c336))
  (fp_line (start -19.85 3.745) (end -19.85 19.105) (layer "F.SilkS") (width 0.12) (tstamp 5c986000-fc83-4495-a50f-9f4b94e485bc))
  (fp_line (start -14.77 -9.525) (end -14.77 -6.925) (layer "F.SilkS") (width 0.12) (tstamp 69e05192-f084-4bb3-aff6-f350c539f1a8))
  (fp_line (start -17.25 3.745) (end -17.25 6.345) (layer "F.SilkS") (width 0.12) (tstamp 7184670c-7656-49ee-9a6f-5771dc120d69))
  (fp_line (start 23.45 -6.415) (end 23.45 -5.085) (layer "F.SilkS") (width 0.12) (tstamp 832b1e20-f118-4505-ad00-93c040f2f83d))
  (fp_line (start -14.65 6.345) (end -14.65 19.105) (layer "F.SilkS") (width 0.12) (tstamp 8e981540-9cda-414d-abbb-d34e005f000e))
  (fp_line (start 18.25 -6.415) (end 18.25 19.105) (layer "F.SilkS") (width 0.12) (tstamp 8eacb9d3-c41d-4b39-abd1-0bc8f2e97411))
  (fp_line (start -17.25 6.345) (end -14.65 6.345) (layer "F.SilkS") (width 0.12) (tstamp 9c5b8388-0c5b-43a4-a3f4-d7cd72b89084))
  (fp_line (start 18.25 19.105) (end 23.45 19.105) (layer "F.SilkS") (width 0.12) (tstamp b4afdd30-7a78-4cd8-8670-bb6dd787dcdc))
  (fp_line (start -19.85 3.745) (end -17.25 3.745) (layer "F.SilkS") (width 0.12) (tstamp b8eb5c02-d344-4431-a592-0e7ad9f9a78f))
  (fp_line (start -14.77 -6.925) (end -13.74753 -6.925) (layer "F.SilkS") (width 0.12) (tstamp c71e1710-20a1-4e33-88ae-549fb47faa61))
  (fp_line (start -13.13247 -6.925) (end -12.11 -6.925) (layer "F.SilkS") (width 0.12) (tstamp d432cbe6-4998-44d8-87df-626563ccc34f))
  (fp_line (start -12.11 -9.525) (end -12.11 -6.925) (layer "F.SilkS") (width 0.12) (tstamp d82759b1-57a0-4293-812e-59347193bfc5))
  (fp_line (start -14.77 -9.525) (end -14.2 -9.525) (layer "F.SilkS") (width 0.12) (tstamp da423bcf-af02-422a-8d3f-915d7fd393eb))
  (fp_line (start -19.85 19.105) (end -14.65 19.105) (layer "F.SilkS") (width 0.12) (tstamp e7f989f7-95da-4be3-9e33-743523ae1ee0))
  (fp_line (start -13.44 -10.92) (end -12.11 -10.92) (layer "F.SilkS") (width 0.12) (tstamp e8a7eef6-149e-4a80-9869-67336b262eab))
  (fp_line (start 18.25 -6.415) (end 20.85 -6.415) (layer "F.SilkS") (width 0.12) (tstamp f46fb303-7470-41c0-b6e8-4553c1d6503f))
  (fp_rect (start 26.67 24.13) (end -22.86 -12.7) (layer "F.SilkS") (width 0.12) (fill none) (tstamp 0fd3f13d-0c3f-4c8e-b91e-1739efdf550b))
  (fp_rect (start -11.43 -22.86) (end 3.81 10.16) (layer "F.SilkS") (width 0.12) (fill none) (tstamp e29ecb3b-bdd4-4ff6-80c6-b91117ba47bf))
  (fp_line (start -14.22 3.275) (end -14.22 19.525) (layer "F.CrtYd") (width 0.05) (tstamp 26edc121-4167-44e5-9aaf-65f4ac255233))
  (fp_line (start -15.24 -11.31) (end -11.69 -11.31) (layer "F.CrtYd") (width 0.05) (tstamp 272d2299-18dd-4a3e-a196-6d15ba4f51c4))
  (fp_line (start -11.69 -6.46) (end -15.24 -6.46) (layer "F.CrtYd") (width 0.05) (tstamp 27c35e8b-315a-496f-813b-9dd8fc243144))
  (fp_line (start -20.32 19.525) (end -20.32 3.275) (layer "F.CrtYd") (width 0.05) (tstamp 35e13391-5257-46f3-93a5-87ffd4e862a4))
  (fp_line (start -15.24 -6.46) (end -15.24 -11.31) (layer "F.CrtYd") (width 0.05) (tstamp 7ff097b5-a55d-47f6-a955-3ddc5f3d0fd8))
  (fp_line (start 17.78 -6.885) (end 23.88 -6.885) (layer "F.CrtYd") (width 0.05) (tstamp 86f6faec-7eee-404c-a73a-2ae625f33d8c))
  (fp_line (start 17.78 19.515) (end 17.78 -6.885) (layer "F.CrtYd") (width 0.05) (tstamp 90337a8b-a8c5-48e1-ad0f-b0e67716fe3c))
  (fp_line (start -14.22 19.525) (end -20.32 19.525) (layer "F.CrtYd") (width 0.05) (tstamp 92ee3d85-c13e-4120-ad64-bd390adf040c))
  (fp_line (start -11.69 -11.31) (end -11.69 -6.46) (layer "F.CrtYd") (width 0.05) (tstamp b6346b0a-bb01-4e48-89f7-5054374e0d0d))
  (fp_line (start -20.32 3.275) (end -14.22 3.275) (layer "F.CrtYd") (width 0.05) (tstamp c96fb61f-984b-4e24-874e-ad2f1e86f9d7))
  (fp_line (start 23.88 19.515) (end 17.78 19.515) (layer "F.CrtYd") (width 0.05) (tstamp d3db736b-0e33-4126-b950-5488923df40e))
  (fp_line (start 23.88 -6.885) (end 23.88 19.515) (layer "F.CrtYd") (width 0.05) (tstamp eb83440d-aa8b-4a1e-9e93-00cf0de78de9))
  (fp_line (start -12.805 -10.795) (end -12.17 -10.16) (layer "F.Fab") (width 0.1) (tstamp 3b5cbb6d-677b-4641-88bd-7044bfd6bfae))
  (fp_line (start -12.17 -10.16) (end -12.17 -6.985) (layer "F.Fab") (width 0.1) (tstamp 58e43a80-a74c-4a45-a990-a8fe7ecac27a))
  (fp_line (start 23.39 19.045) (end 18.31 19.045) (layer "F.Fab") (width 0.1) (tstamp 644ebc55-9b92-49bd-8dfa-8a3a0dd8d76d))
  (fp_line (start 18.31 19.045) (end 18.31 -6.355) (layer "F.Fab") (width 0.1) (tstamp 66cc4ddc-a52d-4ad7-986e-68f000539802))
  (fp_line (start -15.71 3.805) (end -14.71 4.805) (layer "F.Fab") (width 0.1) (tstamp 7f9c0307-e84d-4f8a-93be-34fc4b3feb89))
  (fp_line (start -19.79 19.045) (end -19.79 3.805) (layer "F.Fab") (width 0.1) (tstamp 8a3381a5-19d1-47f5-85b0-cf20b0f3bb61))
  (fp_line (start -14.71 19.045) (end -19.79 19.045) (layer "F.Fab") (width 0.1) (tstamp a06bd114-6488-4d22-b31a-c3a8f70a2574))
  (fp_line (start -14.71 4.805) (end -14.71 19.045) (layer "F.Fab") (width 0.1) (tstamp cc93ecb4-fd7b-48b7-868d-89f294f07c27))
  (fp_line (start 18.31 -6.355) (end 22.39 -6.355) (layer "F.Fab") (width 0.1) (tstamp cfec88d2-05ea-4320-9be6-2559d89ee700))
  (fp_line (start -12.17 -6.985) (end -14.71 -6.985) (layer "F.Fab") (width 0.1) (tstamp d75f1379-cf40-49b3-9b28-2d291ed900e9))
  (fp_line (start -19.79 3.805) (end -15.71 3.805) (layer "F.Fab") (width 0.1) (tstamp db97118a-0872-4a5d-aaa5-b35f9498f22a))
  (fp_line (start -14.71 -6.985) (end -14.71 -10.795) (layer "F.Fab") (width 0.1) (tstamp de9ed2c1-1e41-42ee-81d4-f29b6bd22835))
  (fp_line (start -14.71 -10.795) (end -12.805 -10.795) (layer "F.Fab") (width 0.1) (tstamp ee86ad28-2e8a-4b4f-a90f-b244d52f0462))
  (fp_line (start 23.39 -5.355) (end 23.39 19.045) (layer "F.Fab") (width 0.1) (tstamp f7475c2a-e91e-435c-bec2-3307ef3e1f94))
  (fp_line (start 22.39 -6.355) (end 23.39 -5.355) (layer "F.Fab") (width 0.1) (tstamp fe1c93f4-4468-424b-a088-27aef08b62b4))
  (pad "1" thru_hole rect (at 22.12 -5.085) (size 1.7 1.7) (drill 1) (layers *.Cu *.Mask) (tstamp f8e9fc00-8f60-4688-b1c9-6de1e4c0c204))
  (pad "2" thru_hole oval (at 19.58 -5.085) (size 1.7 1.7) (drill 1) (layers *.Cu *.Mask) (tstamp 76ee303c-1cfc-45a8-ae72-af3efaba6c47))
  (pad "3" thru_hole oval (at 22.12 -2.545) (size 1.7 1.7) (drill 1) (layers *.Cu *.Mask) (tstamp 872313a4-03e6-4e4a-b850-f54dcb50f9fc))
  (pad "4" thru_hole oval (at 19.58 -2.545) (size 1.7 1.7) (drill 1) (layers *.Cu *.Mask) (tstamp bce25bd3-0fe5-4c8f-bd6c-39e2d62ee70a))
  (pad "5" thru_hole oval (at 22.12 -0.005) (size 1.7 1.7) (drill 1) (layers *.Cu *.Mask) (tstamp 5ef603f2-8407-4088-9f29-0b64dd4b046f))
  (pad "6" thru_hole oval (at 19.58 -0.005) (size 1.7 1.7) (drill 1) (layers *.Cu *.Mask) (tstamp dd4f23cd-8f89-457c-8b93-3828f8c20a8d))
  (pad "7" thru_hole oval (at 22.12 2.535) (size 1.7 1.7) (drill 1) (layers *.Cu *.Mask) (tstamp e4d60aa0-829b-452e-a0b4-f0b282cbe2f3))
  (pad "8" thru_hole oval (at 19.58 2.535) (size 1.7 1.7) (drill 1) (layers *.Cu *.Mask) (tstamp ac81fb15-6f1a-451b-a962-fb87ffd26f6b))
  (pad "9" thru_hole oval (at 22.12 5.075) (size 1.7 1.7) (drill 1) (layers *.Cu *.Mask) (tstamp 741879e3-3045-40c7-849d-7f437c35ee91))
  (pad "10" thru_hole oval (at 19.58 5.075) (size 1.7 1.7) (drill 1) (layers *.Cu *.Mask) (tstamp 6ee71a3c-fedb-4cc6-a3c6-f3d6f3ac6767))
  (pad "11" thru_hole oval (at 22.12 7.615) (size 1.7 1.7) (drill 1) (layers *.Cu *.Mask) (tstamp 06b6db7e-5210-41ec-a47b-0127ebbe0786))
  (pad "12" thru_hole oval (at 19.58 7.615) (size 1.7 1.7) (drill 1) (layers *.Cu *.Mask) (tstamp 3f9f133b-59b8-4791-b0ab-6fa861da9e3f))
  (pad "13" thru_hole oval (at 22.12 10.155) (size 1.7 1.7) (drill 1) (layers *.Cu *.Mask) (tstamp 85621d90-361e-49b6-9449-b54a16cce021))
  (pad "14" thru_hole oval (at 19.58 10.155) (size 1.7 1.7) (drill 1) (layers *.Cu *.Mask) (tstamp 39614f9f-2df5-492b-a093-45b7a48e295d))
  (pad "15" thru_hole oval (at 22.12 12.695) (size 1.7 1.7) (drill 1) (layers *.Cu *.Mask) (tstamp 3cfddd47-0913-4692-89bb-8a69d22be5a7))
  (pad "16" thru_hole oval (at 19.58 12.695) (size 1.7 1.7) (drill 1) (layers *.Cu *.Mask) (tstamp 7983b95c-14e4-4dec-ab4e-09c81071d9de))
  (pad "17" thru_hole oval (at 22.12 15.235) (size 1.7 1.7) (drill 1) (layers *.Cu *.Mask) (tstamp 2949af22-2432-469e-9f07-eee60be8acbd))
  (pad "18" thru_hole oval (at 19.58 15.235) (size 1.7 1.7) (drill 1) (layers *.Cu *.Mask) (tstamp 3997254a-8057-4464-ba07-e37f0720cbd8))
  (pad "19" thru_hole oval (at 22.12 17.775) (size 1.7 1.7) (drill 1) (layers *.Cu *.Mask) (tstamp 356199c8-c0f7-4995-bef0-53ad752a30c5))
  (pad "20" thru_hole oval (at 19.58 17.775) (size 1.7 1.7) (drill 1) (layers *.Cu *.Mask) (tstamp cb0f5a26-0827-4807-aea7-55b25947b9d5))
  (pad "21" thru_hole rect (at -15.98 5.075) (size 1.7 1.7) (drill 1) (layers *.Cu *.Mask) (tstamp 059f4155-bed3-4fb2-9baa-d569f31b7e5d))
  (pad "22" thru_hole oval (at -18.52 5.075) (size 1.7 1.7) (drill 1) (layers *.Cu *.Mask) (tstamp 6fb8126a-bcf3-40a3-924c-e2fbe8dba36a))
  (pad "23" thru_hole oval (at -15.98 7.615) (size 1.7 1.7) (drill 1) (layers *.Cu *.Mask) (tstamp b400c80e-5312-495d-b0d5-8365ed4de032))
  (pad "24" thru_hole oval (at -18.52 7.615) (size 1.7 1.7) (drill 1) (layers *.Cu *.Mask) (tstamp 45fc93ca-f8ba-48a8-9189-1c9886475cd3))
  (pad "25" thru_hole oval (at -15.98 10.155) (size 1.7 1.7) (drill 1) (layers *.Cu *.Mask) (tstamp c9863f4f-bdf5-49f4-b18e-dce622ff9931))
  (pad "26" thru_hole oval (at -18.52 10.155) (size 1.7 1.7) (drill 1) (layers *.Cu *.Mask) (tstamp 802bd717-75a4-4efc-bdc3-ab512c6bce65))
  (pad "27" thru_hole oval (at -15.98 12.695) (size 1.7 1.7) (drill 1) (layers *.Cu *.Mask) (tstamp 88ea0fe3-17bb-45bf-bf71-4da88c965186))
  (pad "28" thru_hole oval (at -18.52 12.695) (size 1.7 1.7) (drill 1) (layers *.Cu *.Mask) (tstamp bb7f3caf-4343-4dcb-b7b2-5479c850c4a2))
  (pad "29" thru_hole oval (at -15.98 15.235) (size 1.7 1.7) (drill 1) (layers *.Cu *.Mask) (tstamp d8932824-bdfc-4009-a7d0-6ff32efa7e1a))
  (pad "30" thru_hole oval (at -18.52 15.235) (size 1.7 1.7) (drill 1) (layers *.Cu *.Mask) (tstamp 12c9f3e1-9431-42f8-b6f8-fb6fd35fc1cb))
  (pad "31" thru_hole oval (at -15.98 17.775) (size 1.7 1.7) (drill 1) (layers *.Cu *.Mask) (tstamp 9fbabfd5-5316-4dcb-8d99-3c53b9c69880))
  (pad "32" thru_hole oval (at -18.52 17.775) (size 1.7 1.7) (drill 1) (layers *.Cu *.Mask) (tstamp f89b1d5e-28c8-498c-b199-7acbd8607540))
  (pad "33" thru_hole rect (at -13.44 -10.16) (size 1 1) (drill 0.7) (layers *.Cu *.Mask) (tstamp 9d29d03c-427b-4b84-bf4f-2d6f7ba5364a))
  (pad "34" thru_hole oval (at -13.44 -8.89) (size 1 1) (drill 0.7) (layers *.Cu *.Mask) (tstamp b4796a06-5ec1-4b7e-a305-c6447cc5c644))
  (pad "35" thru_hole oval (at -13.44 -7.62) (size 1 1) (drill 0.7) (layers *.Cu *.Mask) (tstamp 04b9ebfa-2699-4160-9e9c-0c509052f4c5))
)
